%YAML 1.1
%TAG !u! tag:unity3d.com,2011:
--- !u!114 &11400000
MonoBehaviour:
  m_ObjectHideFlags: 0
  m_CorrespondingSourceObject: {fileID: 0}
  m_PrefabInstance: {fileID: 0}
  m_PrefabAsset: {fileID: 0}
  m_GameObject: {fileID: 0}
  m_Enabled: 1
  m_EditorHideFlags: 0
  m_Script: {fileID: 11500000, guid: fd5d1904cd5304843a753e2194a13d50, type: 3}
  m_Name: KLSettings 1
  m_EditorClassIdentifier: 
  autogenerateCode: 1
  editorLogLevel: 1
  buildLogLevel: 2
  m_krilloudInDebugMode: 0
  placeholderContract:
    tags: []
    variables: []
  cacheContract:
    tags: []
    variables: []
    soundbank_files: []
    channels: []
