{
    "value0": {
        "cereal_class_version": 20191030,
        "project_path": "C:\\Users\\Usuario\\Desktop\\Krilloud Proj",
        "game_path": "C:\\Users\\Usuario\\Documents\\MyProject\\perdiosuvidaenellol\\Assets\\StreamingAssets\\KrilloudData",
        "project_name": "GameTestProj",
        "tags": [
            {
                "cereal_class_version": 20191030,
                "tagname": "Piano Keys",
                "is3Dtag": false,
                "Min3DDistance": 1.0,
                "Max3DDistance": 1.0,
                "roll_off_factor": 1.0,
                "attenuationType": 1,
                "distance_delay": false,
                "doppler_active": true,
                "doppler_factor": 1.0,
                "isLoopable": false,
                "channel_id": 0,
                "levelName": "Root",
                "associated_ID": -1,
                "gids": 11,
                "graphNodes_info": [
                    {
                        "cereal_class_version": 20191030,
                        "type": 18,
                        "ID": 0,
                        "Name": "Output",
                        "Pos_x": 1112.0,
                        "Pos_y": 308.0,
                        "Size_x": 100.0,
                        "Size_y": 50.0,
                        "can_be_deleted": false,
                        "inputsCount": 1,
                        "outputsCount": 0,
                        "sockets": [
                            {
                                "cereal_class_version": 20191030,
                                "SocketID": 0,
                                "connection_type": 0,
                                "data_type": 0,
                                "links": [
                                    {
                                        "cereal_class_version": 20191030,
                                        "my_socket_id": 0,
                                        "connected_node_id": 2,
                                        "connected_node_socket_id": 1
                                    }
                                ]
                            }
                        ],
                        "values": []
                    },
                    {
                        "type": 20,
                        "ID": 2,
                        "Name": "Selector",
                        "Pos_x": 597.0,
                        "Pos_y": 340.0,
                        "Size_x": 200.0,
                        "Size_y": 160.0,
                        "can_be_deleted": true,
                        "inputsCount": 7,
                        "outputsCount": 1,
                        "sockets": [
                            {
                                "SocketID": 0,
                                "connection_type": 0,
                                "data_type": 1,
                                "links": [
                                    {
                                        "my_socket_id": 0,
                                        "connected_node_id": 4,
                                        "connected_node_socket_id": 0
                                    }
                                ]
                            },
                            {
                                "SocketID": 3,
                                "connection_type": 1,
                                "data_type": 0,
                                "links": [
                                    {
                                        "my_socket_id": 3,
                                        "connected_node_id": 0,
                                        "connected_node_socket_id": 0
                                    }
                                ]
                            },
                            {
                                "SocketID": 1,
                                "connection_type": 0,
                                "data_type": 0,
                                "links": [
                                    {
                                        "my_socket_id": 1,
                                        "connected_node_id": 5,
                                        "connected_node_socket_id": 0
                                    }
                                ]
                            },
                            {
                                "SocketID": 2,
                                "connection_type": 0,
                                "data_type": 0,
                                "links": [
                                    {
                                        "my_socket_id": 2,
                                        "connected_node_id": 6,
                                        "connected_node_socket_id": 0
                                    }
                                ]
                            },
                            {
                                "SocketID": 4,
                                "connection_type": 0,
                                "data_type": 0,
                                "links": [
                                    {
                                        "my_socket_id": 4,
                                        "connected_node_id": 8,
                                        "connected_node_socket_id": 0
                                    }
                                ]
                            },
                            {
                                "SocketID": 5,
                                "connection_type": 0,
                                "data_type": 0,
                                "links": [
                                    {
                                        "my_socket_id": 5,
                                        "connected_node_id": 7,
                                        "connected_node_socket_id": 0
                                    }
                                ]
                            },
                            {
                                "SocketID": 6,
                                "connection_type": 0,
                                "data_type": 0,
                                "links": [
                                    {
                                        "my_socket_id": 6,
                                        "connected_node_id": 9,
                                        "connected_node_socket_id": 0
                                    }
                                ]
                            },
                            {
                                "SocketID": 7,
                                "connection_type": 0,
                                "data_type": 0,
                                "links": [
                                    {
                                        "my_socket_id": 7,
                                        "connected_node_id": 10,
                                        "connected_node_socket_id": 0
                                    }
                                ]
                            },
                            {
                                "SocketID": 8,
                                "connection_type": 0,
                                "data_type": 0,
                                "links": [
                                    {
                                        "my_socket_id": 8,
                                        "connected_node_id": 11,
                                        "connected_node_socket_id": 0
                                    }
                                ]
                            }
                        ],
                        "values": []
                    },
                    {
                        "type": 16,
                        "ID": 4,
                        "Name": "selector",
                        "Pos_x": 310.0,
                        "Pos_y": 19.0,
                        "Size_x": 175.0,
                        "Size_y": 110.0,
                        "can_be_deleted": true,
                        "inputsCount": 0,
                        "outputsCount": 1,
                        "sockets": [
                            {
                                "SocketID": 0,
                                "connection_type": 1,
                                "data_type": 1,
                                "links": [
                                    {
                                        "my_socket_id": 0,
                                        "connected_node_id": 2,
                                        "connected_node_socket_id": 0
                                    }
                                ]
                            }
                        ],
                        "values": [
                            0.0,
                            2.0,
                            1.0,
                            0.0,
                            1.0
                        ]
                    },
                    {
                        "type": 1,
                        "ID": 5,
                        "Name": "Audio Container",
                        "Pos_x": 38.0,
                        "Pos_y": 87.0,
                        "Size_x": 200.0,
                        "Size_y": 100.0,
                        "can_be_deleted": true,
                        "inputsCount": 0,
                        "outputsCount": 1,
                        "sockets": [
                            {
                                "SocketID": 0,
                                "connection_type": 1,
                                "data_type": 0,
                                "links": [
                                    {
                                        "my_socket_id": 0,
                                        "connected_node_id": 2,
                                        "connected_node_socket_id": 2
                                    }
                                ]
                            }
                        ],
                        "values": [
                            16660.0,
                            1.0
                        ]
                    },
                    {
                        "type": 1,
                        "ID": 6,
                        "Name": "Audio Container",
                        "Pos_x": 36.0,
                        "Pos_y": 197.0,
                        "Size_x": 200.0,
                        "Size_y": 100.0,
                        "can_be_deleted": true,
                        "inputsCount": 0,
                        "outputsCount": 1,
                        "sockets": [
                            {
                                "SocketID": 0,
                                "connection_type": 1,
                                "data_type": 0,
                                "links": [
                                    {
                                        "my_socket_id": 0,
                                        "connected_node_id": 2,
                                        "connected_node_socket_id": 3
                                    }
                                ]
                            }
                        ],
                        "values": [
                            16674.0,
                            1.0
                        ]
                    },
                    {
                        "type": 1,
                        "ID": 7,
                        "Name": "Audio Container",
                        "Pos_x": 43.0,
                        "Pos_y": 414.0,
                        "Size_x": 200.0,
                        "Size_y": 100.0,
                        "can_be_deleted": true,
                        "inputsCount": 0,
                        "outputsCount": 1,
                        "sockets": [
                            {
                                "SocketID": 0,
                                "connection_type": 1,
                                "data_type": 0,
                                "links": [
                                    {
                                        "my_socket_id": 0,
                                        "connected_node_id": 2,
                                        "connected_node_socket_id": 5
                                    }
                                ]
                            }
                        ],
                        "values": [
                            16702.0,
                            1.0
                        ]
                    },
                    {
                        "type": 1,
                        "ID": 8,
                        "Name": "Audio Container",
                        "Pos_x": 41.0,
                        "Pos_y": 304.0,
                        "Size_x": 200.0,
                        "Size_y": 100.0,
                        "can_be_deleted": true,
                        "inputsCount": 0,
                        "outputsCount": 1,
                        "sockets": [
                            {
                                "SocketID": 0,
                                "connection_type": 1,
                                "data_type": 0,
                                "links": [
                                    {
                                        "my_socket_id": 0,
                                        "connected_node_id": 2,
                                        "connected_node_socket_id": 4
                                    }
                                ]
                            }
                        ],
                        "values": [
                            16688.0,
                            1.0
                        ]
                    },
                    {
                        "type": 1,
                        "ID": 9,
                        "Name": "Audio Container",
                        "Pos_x": 46.0,
                        "Pos_y": 521.0,
                        "Size_x": 200.0,
                        "Size_y": 100.0,
                        "can_be_deleted": true,
                        "inputsCount": 0,
                        "outputsCount": 1,
                        "sockets": [
                            {
                                "SocketID": 0,
                                "connection_type": 1,
                                "data_type": 0,
                                "links": [
                                    {
                                        "my_socket_id": 0,
                                        "connected_node_id": 2,
                                        "connected_node_socket_id": 6
                                    }
                                ]
                            }
                        ],
                        "values": [
                            16716.0,
                            1.0
                        ]
                    },
                    {
                        "type": 1,
                        "ID": 10,
                        "Name": "Audio Container",
                        "Pos_x": 51.0,
                        "Pos_y": 631.0,
                        "Size_x": 200.0,
                        "Size_y": 100.0,
                        "can_be_deleted": true,
                        "inputsCount": 0,
                        "outputsCount": 1,
                        "sockets": [
                            {
                                "SocketID": 0,
                                "connection_type": 1,
                                "data_type": 0,
                                "links": [
                                    {
                                        "my_socket_id": 0,
                                        "connected_node_id": 2,
                                        "connected_node_socket_id": 7
                                    }
                                ]
                            }
                        ],
                        "values": [
                            16730.0,
                            1.0
                        ]
                    },
                    {
                        "type": 1,
                        "ID": 11,
                        "Name": "Audio Container",
                        "Pos_x": 52.0,
                        "Pos_y": 747.0,
                        "Size_x": 200.0,
                        "Size_y": 100.0,
                        "can_be_deleted": true,
                        "inputsCount": 0,
                        "outputsCount": 1,
                        "sockets": [
                            {
                                "SocketID": 0,
                                "connection_type": 1,
                                "data_type": 0,
                                "links": [
                                    {
                                        "my_socket_id": 0,
                                        "connected_node_id": 2,
                                        "connected_node_socket_id": 8
                                    }
                                ]
                            }
                        ],
                        "values": [
                            16744.0,
                            1.0
                        ]
                    }
                ],
                "graphLevels_info": []
            },
            {
                "tagname": "SFXs",
                "is3Dtag": false,
                "Min3DDistance": 1.0,
                "Max3DDistance": 1.0,
                "roll_off_factor": 1.0,
                "attenuationType": 0,
                "distance_delay": false,
                "doppler_active": false,
                "doppler_factor": 1.0,
                "isLoopable": false,
                "channel_id": 0,
                "levelName": "Root",
                "associated_ID": -1,
                "gids": 9,
                "graphNodes_info": [
                    {
                        "type": 18,
                        "ID": 0,
                        "Name": "Output",
                        "Pos_x": 962.0,
                        "Pos_y": 361.0,
                        "Size_x": 100.0,
                        "Size_y": 50.0,
                        "can_be_deleted": false,
                        "inputsCount": 1,
                        "outputsCount": 0,
                        "sockets": [
                            {
                                "SocketID": 0,
                                "connection_type": 0,
                                "data_type": 0,
                                "links": [
                                    {
                                        "my_socket_id": 0,
                                        "connected_node_id": 1,
                                        "connected_node_socket_id": 1
                                    }
                                ]
                            }
                        ],
                        "values": []
                    },
                    {
                        "type": 20,
                        "ID": 1,
                        "Name": "Selector",
                        "Pos_x": 639.0,
                        "Pos_y": 340.0,
                        "Size_x": 200.0,
                        "Size_y": 160.0,
                        "can_be_deleted": true,
                        "inputsCount": 7,
                        "outputsCount": 1,
                        "sockets": [
                            {
                                "SocketID": 0,
                                "connection_type": 0,
                                "data_type": 1,
                                "links": [
                                    {
                                        "my_socket_id": 0,
                                        "connected_node_id": 9,
                                        "connected_node_socket_id": 0
                                    }
                                ]
                            },
                            {
                                "SocketID": 3,
                                "connection_type": 1,
                                "data_type": 0,
                                "links": [
                                    {
                                        "my_socket_id": 3,
                                        "connected_node_id": 0,
                                        "connected_node_socket_id": 0
                                    }
                                ]
                            },
                            {
                                "SocketID": 1,
                                "connection_type": 0,
                                "data_type": 0,
                                "links": [
                                    {
                                        "my_socket_id": 1,
                                        "connected_node_id": 2,
                                        "connected_node_socket_id": 0
                                    }
                                ]
                            },
                            {
                                "SocketID": 2,
                                "connection_type": 0,
                                "data_type": 0,
                                "links": [
                                    {
                                        "my_socket_id": 2,
                                        "connected_node_id": 3,
                                        "connected_node_socket_id": 0
                                    }
                                ]
                            },
                            {
                                "SocketID": 4,
                                "connection_type": 0,
                                "data_type": 0,
                                "links": [
                                    {
                                        "my_socket_id": 4,
                                        "connected_node_id": 4,
                                        "connected_node_socket_id": 0
                                    }
                                ]
                            },
                            {
                                "SocketID": 5,
                                "connection_type": 0,
                                "data_type": 0,
                                "links": [
                                    {
                                        "my_socket_id": 5,
                                        "connected_node_id": 5,
                                        "connected_node_socket_id": 0
                                    }
                                ]
                            },
                            {
                                "SocketID": 6,
                                "connection_type": 0,
                                "data_type": 0,
                                "links": [
                                    {
                                        "my_socket_id": 6,
                                        "connected_node_id": 6,
                                        "connected_node_socket_id": 0
                                    }
                                ]
                            },
                            {
                                "SocketID": 7,
                                "connection_type": 0,
                                "data_type": 0,
                                "links": [
                                    {
                                        "my_socket_id": 7,
                                        "connected_node_id": 7,
                                        "connected_node_socket_id": 0
                                    }
                                ]
                            },
                            {
                                "SocketID": 8,
                                "connection_type": 0,
                                "data_type": 0,
                                "links": [
                                    {
                                        "my_socket_id": 8,
                                        "connected_node_id": 8,
                                        "connected_node_socket_id": 0
                                    }
                                ]
                            }
                        ],
                        "values": []
                    },
                    {
                        "type": 1,
                        "ID": 2,
                        "Name": "Audio Container",
                        "Pos_x": 94.0,
                        "Pos_y": 91.0,
                        "Size_x": 200.0,
                        "Size_y": 100.0,
                        "can_be_deleted": true,
                        "inputsCount": 0,
                        "outputsCount": 1,
                        "sockets": [
                            {
                                "SocketID": 0,
                                "connection_type": 1,
                                "data_type": 0,
                                "links": [
                                    {
                                        "my_socket_id": 0,
                                        "connected_node_id": 1,
                                        "connected_node_socket_id": 2
                                    }
                                ]
                            }
                        ],
                        "values": [
                            30517.0,
                            1.0
                        ]
                    },
                    {
                        "type": 1,
                        "ID": 3,
                        "Name": "Audio Container",
                        "Pos_x": 88.0,
                        "Pos_y": 199.0,
                        "Size_x": 200.0,
                        "Size_y": 100.0,
                        "can_be_deleted": true,
                        "inputsCount": 0,
                        "outputsCount": 1,
                        "sockets": [
                            {
                                "SocketID": 0,
                                "connection_type": 1,
                                "data_type": 0,
                                "links": [
                                    {
                                        "my_socket_id": 0,
                                        "connected_node_id": 1,
                                        "connected_node_socket_id": 3
                                    }
                                ]
                            }
                        ],
                        "values": [
                            4476.0,
                            1.0
                        ]
                    },
                    {
                        "type": 1,
                        "ID": 4,
                        "Name": "Audio Container",
                        "Pos_x": 88.0,
                        "Pos_y": 312.0,
                        "Size_x": 200.0,
                        "Size_y": 100.0,
                        "can_be_deleted": true,
                        "inputsCount": 0,
                        "outputsCount": 1,
                        "sockets": [
                            {
                                "SocketID": 0,
                                "connection_type": 1,
                                "data_type": 0,
                                "links": [
                                    {
                                        "my_socket_id": 0,
                                        "connected_node_id": 1,
                                        "connected_node_socket_id": 4
                                    }
                                ]
                            }
                        ],
                        "values": [
                            4600.0,
                            1.0
                        ]
                    },
                    {
                        "type": 1,
                        "ID": 5,
                        "Name": "Audio Container",
                        "Pos_x": 77.0,
                        "Pos_y": 429.0,
                        "Size_x": 200.0,
                        "Size_y": 100.0,
                        "can_be_deleted": true,
                        "inputsCount": 0,
                        "outputsCount": 1,
                        "sockets": [
                            {
                                "SocketID": 0,
                                "connection_type": 1,
                                "data_type": 0,
                                "links": [
                                    {
                                        "my_socket_id": 0,
                                        "connected_node_id": 1,
                                        "connected_node_socket_id": 5
                                    }
                                ]
                            }
                        ],
                        "values": [
                            13766.0,
                            1.0
                        ]
                    },
                    {
                        "type": 1,
                        "ID": 6,
                        "Name": "Audio Container",
                        "Pos_x": 92.0,
                        "Pos_y": 543.0,
                        "Size_x": 200.0,
                        "Size_y": 100.0,
                        "can_be_deleted": true,
                        "inputsCount": 0,
                        "outputsCount": 1,
                        "sockets": [
                            {
                                "SocketID": 0,
                                "connection_type": 1,
                                "data_type": 0,
                                "links": [
                                    {
                                        "my_socket_id": 0,
                                        "connected_node_id": 1,
                                        "connected_node_socket_id": 6
                                    }
                                ]
                            }
                        ],
                        "values": [
                            2776.0,
                            1.0
                        ]
                    },
                    {
                        "type": 1,
                        "ID": 7,
                        "Name": "Audio Container",
                        "Pos_x": 91.0,
                        "Pos_y": 652.0,
                        "Size_x": 200.0,
                        "Size_y": 100.0,
                        "can_be_deleted": true,
                        "inputsCount": 0,
                        "outputsCount": 1,
                        "sockets": [
                            {
                                "SocketID": 0,
                                "connection_type": 1,
                                "data_type": 0,
                                "links": [
                                    {
                                        "my_socket_id": 0,
                                        "connected_node_id": 1,
                                        "connected_node_socket_id": 7
                                    }
                                ]
                            }
                        ],
                        "values": [
                            2138.0,
                            1.0
                        ]
                    },
                    {
                        "type": 1,
                        "ID": 8,
                        "Name": "Audio Container",
                        "Pos_x": 90.0,
                        "Pos_y": 761.0,
                        "Size_x": 200.0,
                        "Size_y": 100.0,
                        "can_be_deleted": true,
                        "inputsCount": 0,
                        "outputsCount": 1,
                        "sockets": [
                            {
                                "SocketID": 0,
                                "connection_type": 1,
                                "data_type": 0,
                                "links": [
                                    {
                                        "my_socket_id": 0,
                                        "connected_node_id": 1,
                                        "connected_node_socket_id": 8
                                    }
                                ]
                            }
                        ],
                        "values": [
                            2814.0,
                            1.0
                        ]
                    },
                    {
                        "type": 16,
                        "ID": 9,
                        "Name": "selector",
                        "Pos_x": 526.0,
                        "Pos_y": 101.0,
                        "Size_x": 175.0,
                        "Size_y": 110.0,
                        "can_be_deleted": true,
                        "inputsCount": 0,
                        "outputsCount": 1,
                        "sockets": [
                            {
                                "SocketID": 0,
                                "connection_type": 1,
                                "data_type": 1,
                                "links": [
                                    {
                                        "my_socket_id": 0,
                                        "connected_node_id": 1,
                                        "connected_node_socket_id": 0
                                    }
                                ]
                            }
                        ],
                        "values": [
                            0.0,
                            2.0,
                            1.0,
                            0.0,
                            1.0
                        ]
                    }
                ],
                "graphLevels_info": []
            }
        ],
        "sounbank_files": [
            {
                "cereal_class_version": 20191030,
                "id": 30517,
                "bankFile": "KSB101244321460007110240DATA.krll",
                "offsetBytes": 0,
                "size": 539452
            },
            {
                "id": 4476,
                "bankFile": "KSB101244321460007110240DATA.krll",
                "offsetBytes": 539452,
                "size": 289294
            },
            {
                "id": 4600,
                "bankFile": "KSB101244321460007110240DATA.krll",
                "offsetBytes": 828746,
                "size": 616918
            },
            {
                "id": 13766,
                "bankFile": "KSB101244321460007110240DATA.krll",
                "offsetBytes": 1445664,
                "size": 559564
            },
            {
                "id": 2776,
                "bankFile": "KSB101244321460007110240DATA.krll",
                "offsetBytes": 2005228,
                "size": 698740
            },
            {
                "id": 2138,
                "bankFile": "KSB101244321460007110240DATA.krll",
                "offsetBytes": 2703968,
                "size": 1058632
            },
            {
                "id": 2814,
                "bankFile": "KSB101244321460007110240DATA.krll",
                "offsetBytes": 3762600,
                "size": 698854
            },
            {
                "id": 16660,
                "bankFile": "KSB101244321460007110241DATA.krll",
                "offsetBytes": 0,
                "size": 396046
            },
            {
                "id": 16674,
                "bankFile": "KSB101244321460007110241DATA.krll",
                "offsetBytes": 396046,
                "size": 406900
            },
            {
                "id": 16688,
                "bankFile": "KSB101244321460007110241DATA.krll",
                "offsetBytes": 802946,
                "size": 410944
            },
            {
                "id": 16702,
                "bankFile": "KSB101244321460007110241DATA.krll",
                "offsetBytes": 1213890,
                "size": 407842
            },
            {
                "id": 16716,
                "bankFile": "KSB101244321460007110241DATA.krll",
                "offsetBytes": 1621732,
                "size": 407842
            },
            {
                "id": 16730,
                "bankFile": "KSB101244321460007110241DATA.krll",
                "offsetBytes": 2029574,
                "size": 413908
            },
            {
                "id": 16744,
                "bankFile": "KSB101244321460007110241DATA.krll",
                "offsetBytes": 2443482,
                "size": 393394
            }
        ],
        "variables": [
            {
                "cereal_class_version": 20191030,
                "variable_name": "selector",
                "current_value": 0.0,
                "type": 1,
                "source": 2,
                "content": 0,
                "range_min": 0.0,
                "range_max": 10.0,
                "set_only_on_play": false
            }
        ],
        "channels": [
            {
                "cereal_class_version": 20191030,
                "channel_name": "Master",
                "parent_id": -1,
                "volume": 1.0
            }
        ]
    }
}